Initializing long term scheduler...
Long term scheduler scheduling...
Transfering pages from disk to ram as frames...
=========================================
Page: 0 Frame: 0 Valid: 1
Page: 1 Frame: 1 Valid: 1
Page: 2 Frame: 2 Valid: 1
Page: 3 Frame: 3 Valid: 1
Page: 4 Frame: 0 Valid: 0
Page: 5 Frame: 0 Valid: 0
Page: 6 Frame: 0 Valid: 0
Page: 7 Frame: 0 Valid: 0
Page: 8 Frame: 0 Valid: 0
Page: 9 Frame: 0 Valid: 0
Page: 10 Frame: 0 Valid: 0
Page: 11 Frame: 0 Valid: 0
Page: 12 Frame: 0 Valid: 0
Page: 13 Frame: 0 Valid: 0
Page: 14 Frame: 0 Valid: 0
Page: 15 Frame: 0 Valid: 0
Page: 16 Frame: 0 Valid: 0
=========================================
=========================================
Page: 0 Frame: 4 Valid: 1
Page: 1 Frame: 5 Valid: 1
Page: 2 Frame: 6 Valid: 1
Page: 3 Frame: 7 Valid: 1
Page: 4 Frame: 0 Valid: 0
Page: 5 Frame: 0 Valid: 0
Page: 6 Frame: 0 Valid: 0
Page: 7 Frame: 0 Valid: 0
Page: 8 Frame: 0 Valid: 0
Page: 9 Frame: 0 Valid: 0
Page: 10 Frame: 0 Valid: 0
Page: 11 Frame: 0 Valid: 0
Page: 12 Frame: 0 Valid: 0
Page: 13 Frame: 0 Valid: 0
Page: 14 Frame: 0 Valid: 0
Page: 15 Frame: 0 Valid: 0
Page: 16 Frame: 0 Valid: 0
Page: 17 Frame: 0 Valid: 0
=========================================
=========================================
Page: 0 Frame: 8 Valid: 1
Page: 1 Frame: 9 Valid: 1
Page: 2 Frame: 10 Valid: 1
Page: 3 Frame: 11 Valid: 1
Page: 4 Frame: 0 Valid: 0
Page: 5 Frame: 0 Valid: 0
Page: 6 Frame: 0 Valid: 0
Page: 7 Frame: 0 Valid: 0
Page: 8 Frame: 0 Valid: 0
Page: 9 Frame: 0 Valid: 0
Page: 10 Frame: 0 Valid: 0
Page: 11 Frame: 0 Valid: 0
Page: 12 Frame: 0 Valid: 0
Page: 13 Frame: 0 Valid: 0
Page: 14 Frame: 0 Valid: 0
Page: 15 Frame: 0 Valid: 0
Page: 16 Frame: 0 Valid: 0
=========================================
=========================================
Page: 0 Frame: 12 Valid: 1
Page: 1 Frame: 13 Valid: 1
Page: 2 Frame: 14 Valid: 1
Page: 3 Frame: 15 Valid: 1
Page: 4 Frame: 0 Valid: 0
Page: 5 Frame: 0 Valid: 0
Page: 6 Frame: 0 Valid: 0
Page: 7 Frame: 0 Valid: 0
Page: 8 Frame: 0 Valid: 0
Page: 9 Frame: 0 Valid: 0
Page: 10 Frame: 0 Valid: 0
Page: 11 Frame: 0 Valid: 0
Page: 12 Frame: 0 Valid: 0
Page: 13 Frame: 0 Valid: 0
Page: 14 Frame: 0 Valid: 0
Page: 15 Frame: 0 Valid: 0
=========================================
=========================================
Page: 0 Frame: 16 Valid: 1
Page: 1 Frame: 17 Valid: 1
Page: 2 Frame: 18 Valid: 1
Page: 3 Frame: 19 Valid: 1
Page: 4 Frame: 0 Valid: 0
Page: 5 Frame: 0 Valid: 0
Page: 6 Frame: 0 Valid: 0
Page: 7 Frame: 0 Valid: 0
Page: 8 Frame: 0 Valid: 0
Page: 9 Frame: 0 Valid: 0
Page: 10 Frame: 0 Valid: 0
Page: 11 Frame: 0 Valid: 0
Page: 12 Frame: 0 Valid: 0
Page: 13 Frame: 0 Valid: 0
Page: 14 Frame: 0 Valid: 0
Page: 15 Frame: 0 Valid: 0
Page: 16 Frame: 0 Valid: 0
Page: 17 Frame: 0 Valid: 0
=========================================
=========================================
Page: 0 Frame: 20 Valid: 1
Page: 1 Frame: 21 Valid: 1
Page: 2 Frame: 22 Valid: 1
Page: 3 Frame: 23 Valid: 1
Page: 4 Frame: 0 Valid: 0
Page: 5 Frame: 0 Valid: 0
Page: 6 Frame: 0 Valid: 0
Page: 7 Frame: 0 Valid: 0
Page: 8 Frame: 0 Valid: 0
Page: 9 Frame: 0 Valid: 0
Page: 10 Frame: 0 Valid: 0
Page: 11 Frame: 0 Valid: 0
Page: 12 Frame: 0 Valid: 0
Page: 13 Frame: 0 Valid: 0
Page: 14 Frame: 0 Valid: 0
Page: 15 Frame: 0 Valid: 0
Page: 16 Frame: 0 Valid: 0
=========================================
=========================================
Page: 0 Frame: 24 Valid: 1
Page: 1 Frame: 25 Valid: 1
Page: 2 Frame: 26 Valid: 1
Page: 3 Frame: 27 Valid: 1
Page: 4 Frame: 0 Valid: 0
Page: 5 Frame: 0 Valid: 0
Page: 6 Frame: 0 Valid: 0
Page: 7 Frame: 0 Valid: 0
Page: 8 Frame: 0 Valid: 0
Page: 9 Frame: 0 Valid: 0
Page: 10 Frame: 0 Valid: 0
Page: 11 Frame: 0 Valid: 0
Page: 12 Frame: 0 Valid: 0
Page: 13 Frame: 0 Valid: 0
Page: 14 Frame: 0 Valid: 0
Page: 15 Frame: 0 Valid: 0
=========================================
=========================================
Page: 0 Frame: 28 Valid: 1
Page: 1 Frame: 29 Valid: 1
Page: 2 Frame: 30 Valid: 1
Page: 3 Frame: 31 Valid: 1
Page: 4 Frame: 0 Valid: 0
Page: 5 Frame: 0 Valid: 0
Page: 6 Frame: 0 Valid: 0
Page: 7 Frame: 0 Valid: 0
Page: 8 Frame: 0 Valid: 0
Page: 9 Frame: 0 Valid: 0
Page: 10 Frame: 0 Valid: 0
Page: 11 Frame: 0 Valid: 0
Page: 12 Frame: 0 Valid: 0
Page: 13 Frame: 0 Valid: 0
Page: 14 Frame: 0 Valid: 0
Page: 15 Frame: 0 Valid: 0
=========================================
=========================================
Page: 0 Frame: 32 Valid: 1
Page: 1 Frame: 33 Valid: 1
Page: 2 Frame: 34 Valid: 1
Page: 3 Frame: 35 Valid: 1
Page: 4 Frame: 0 Valid: 0
Page: 5 Frame: 0 Valid: 0
Page: 6 Frame: 0 Valid: 0
Page: 7 Frame: 0 Valid: 0
Page: 8 Frame: 0 Valid: 0
Page: 9 Frame: 0 Valid: 0
Page: 10 Frame: 0 Valid: 0
Page: 11 Frame: 0 Valid: 0
Page: 12 Frame: 0 Valid: 0
Page: 13 Frame: 0 Valid: 0
Page: 14 Frame: 0 Valid: 0
Page: 15 Frame: 0 Valid: 0
Page: 16 Frame: 0 Valid: 0
=========================================
=========================================
Page: 0 Frame: 36 Valid: 1
Page: 1 Frame: 37 Valid: 1
Page: 2 Frame: 38 Valid: 1
Page: 3 Frame: 39 Valid: 1
Page: 4 Frame: 0 Valid: 0
Page: 5 Frame: 0 Valid: 0
Page: 6 Frame: 0 Valid: 0
Page: 7 Frame: 0 Valid: 0
Page: 8 Frame: 0 Valid: 0
Page: 9 Frame: 0 Valid: 0
Page: 10 Frame: 0 Valid: 0
Page: 11 Frame: 0 Valid: 0
Page: 12 Frame: 0 Valid: 0
Page: 13 Frame: 0 Valid: 0
Page: 14 Frame: 0 Valid: 0
Page: 15 Frame: 0 Valid: 0
Page: 16 Frame: 0 Valid: 0
Page: 17 Frame: 0 Valid: 0
=========================================
=========================================
Page: 0 Frame: 40 Valid: 1
Page: 1 Frame: 41 Valid: 1
Page: 2 Frame: 42 Valid: 1
Page: 3 Frame: 43 Valid: 1
Page: 4 Frame: 0 Valid: 0
Page: 5 Frame: 0 Valid: 0
Page: 6 Frame: 0 Valid: 0
Page: 7 Frame: 0 Valid: 0
Page: 8 Frame: 0 Valid: 0
Page: 9 Frame: 0 Valid: 0
Page: 10 Frame: 0 Valid: 0
Page: 11 Frame: 0 Valid: 0
Page: 12 Frame: 0 Valid: 0
Page: 13 Frame: 0 Valid: 0
Page: 14 Frame: 0 Valid: 0
Page: 15 Frame: 0 Valid: 0
Page: 16 Frame: 0 Valid: 0
=========================================
=========================================
Page: 0 Frame: 44 Valid: 1
Page: 1 Frame: 45 Valid: 1
Page: 2 Frame: 46 Valid: 1
Page: 3 Frame: 47 Valid: 1
Page: 4 Frame: 0 Valid: 0
Page: 5 Frame: 0 Valid: 0
Page: 6 Frame: 0 Valid: 0
Page: 7 Frame: 0 Valid: 0
Page: 8 Frame: 0 Valid: 0
Page: 9 Frame: 0 Valid: 0
Page: 10 Frame: 0 Valid: 0
Page: 11 Frame: 0 Valid: 0
Page: 12 Frame: 0 Valid: 0
Page: 13 Frame: 0 Valid: 0
Page: 14 Frame: 0 Valid: 0
Page: 15 Frame: 0 Valid: 0
Page: 16 Frame: 0 Valid: 0
Page: 17 Frame: 0 Valid: 0
=========================================
=========================================
Page: 0 Frame: 48 Valid: 1
Page: 1 Frame: 49 Valid: 1
Page: 2 Frame: 50 Valid: 1
Page: 3 Frame: 51 Valid: 1
Page: 4 Frame: 0 Valid: 0
Page: 5 Frame: 0 Valid: 0
Page: 6 Frame: 0 Valid: 0
Page: 7 Frame: 0 Valid: 0
Page: 8 Frame: 0 Valid: 0
Page: 9 Frame: 0 Valid: 0
Page: 10 Frame: 0 Valid: 0
Page: 11 Frame: 0 Valid: 0
Page: 12 Frame: 0 Valid: 0
Page: 13 Frame: 0 Valid: 0
Page: 14 Frame: 0 Valid: 0
Page: 15 Frame: 0 Valid: 0
Page: 16 Frame: 0 Valid: 0
=========================================
=========================================
Page: 0 Frame: 52 Valid: 1
Page: 1 Frame: 53 Valid: 1
Page: 2 Frame: 54 Valid: 1
Page: 3 Frame: 55 Valid: 1
Page: 4 Frame: 0 Valid: 0
Page: 5 Frame: 0 Valid: 0
Page: 6 Frame: 0 Valid: 0
Page: 7 Frame: 0 Valid: 0
Page: 8 Frame: 0 Valid: 0
Page: 9 Frame: 0 Valid: 0
Page: 10 Frame: 0 Valid: 0
Page: 11 Frame: 0 Valid: 0
Page: 12 Frame: 0 Valid: 0
Page: 13 Frame: 0 Valid: 0
Page: 14 Frame: 0 Valid: 0
Page: 15 Frame: 0 Valid: 0
=========================================
=========================================
Page: 0 Frame: 56 Valid: 1
Page: 1 Frame: 57 Valid: 1
Page: 2 Frame: 58 Valid: 1
Page: 3 Frame: 59 Valid: 1
Page: 4 Frame: 0 Valid: 0
Page: 5 Frame: 0 Valid: 0
Page: 6 Frame: 0 Valid: 0
Page: 7 Frame: 0 Valid: 0
Page: 8 Frame: 0 Valid: 0
Page: 9 Frame: 0 Valid: 0
Page: 10 Frame: 0 Valid: 0
Page: 11 Frame: 0 Valid: 0
Page: 12 Frame: 0 Valid: 0
Page: 13 Frame: 0 Valid: 0
Page: 14 Frame: 0 Valid: 0
Page: 15 Frame: 0 Valid: 0
Page: 16 Frame: 0 Valid: 0
=========================================
=========================================
Page: 0 Frame: 60 Valid: 1
Page: 1 Frame: 61 Valid: 1
Page: 2 Frame: 62 Valid: 1
Page: 3 Frame: 63 Valid: 1
Page: 4 Frame: 0 Valid: 0
Page: 5 Frame: 0 Valid: 0
Page: 6 Frame: 0 Valid: 0
Page: 7 Frame: 0 Valid: 0
Page: 8 Frame: 0 Valid: 0
Page: 9 Frame: 0 Valid: 0
Page: 10 Frame: 0 Valid: 0
Page: 11 Frame: 0 Valid: 0
Page: 12 Frame: 0 Valid: 0
Page: 13 Frame: 0 Valid: 0
Page: 14 Frame: 0 Valid: 0
Page: 15 Frame: 0 Valid: 0
=========================================
=========================================
Page: 0 Frame: 64 Valid: 1
Page: 1 Frame: 65 Valid: 1
Page: 2 Frame: 66 Valid: 1
Page: 3 Frame: 67 Valid: 1
Page: 4 Frame: 0 Valid: 0
Page: 5 Frame: 0 Valid: 0
Page: 6 Frame: 0 Valid: 0
Page: 7 Frame: 0 Valid: 0
Page: 8 Frame: 0 Valid: 0
Page: 9 Frame: 0 Valid: 0
Page: 10 Frame: 0 Valid: 0
Page: 11 Frame: 0 Valid: 0
Page: 12 Frame: 0 Valid: 0
Page: 13 Frame: 0 Valid: 0
Page: 14 Frame: 0 Valid: 0
Page: 15 Frame: 0 Valid: 0
Page: 16 Frame: 0 Valid: 0
Page: 17 Frame: 0 Valid: 0
=========================================
=========================================
Page: 0 Frame: 68 Valid: 1
Page: 1 Frame: 69 Valid: 1
Page: 2 Frame: 70 Valid: 1
Page: 3 Frame: 71 Valid: 1
Page: 4 Frame: 0 Valid: 0
Page: 5 Frame: 0 Valid: 0
Page: 6 Frame: 0 Valid: 0
Page: 7 Frame: 0 Valid: 0
Page: 8 Frame: 0 Valid: 0
Page: 9 Frame: 0 Valid: 0
Page: 10 Frame: 0 Valid: 0
Page: 11 Frame: 0 Valid: 0
Page: 12 Frame: 0 Valid: 0
Page: 13 Frame: 0 Valid: 0
Page: 14 Frame: 0 Valid: 0
Page: 15 Frame: 0 Valid: 0
Page: 16 Frame: 0 Valid: 0
=========================================
=========================================
Page: 0 Frame: 72 Valid: 1
Page: 1 Frame: 73 Valid: 1
Page: 2 Frame: 74 Valid: 1
Page: 3 Frame: 75 Valid: 1
Page: 4 Frame: 0 Valid: 0
Page: 5 Frame: 0 Valid: 0
Page: 6 Frame: 0 Valid: 0
Page: 7 Frame: 0 Valid: 0
Page: 8 Frame: 0 Valid: 0
Page: 9 Frame: 0 Valid: 0
Page: 10 Frame: 0 Valid: 0
Page: 11 Frame: 0 Valid: 0
Page: 12 Frame: 0 Valid: 0
Page: 13 Frame: 0 Valid: 0
Page: 14 Frame: 0 Valid: 0
Page: 15 Frame: 0 Valid: 0
Page: 16 Frame: 0 Valid: 0
Page: 17 Frame: 0 Valid: 0
=========================================
=========================================
Page: 0 Frame: 76 Valid: 1
Page: 1 Frame: 77 Valid: 1
Page: 2 Frame: 78 Valid: 1
Page: 3 Frame: 79 Valid: 1
Page: 4 Frame: 0 Valid: 0
Page: 5 Frame: 0 Valid: 0
Page: 6 Frame: 0 Valid: 0
Page: 7 Frame: 0 Valid: 0
Page: 8 Frame: 0 Valid: 0
Page: 9 Frame: 0 Valid: 0
Page: 10 Frame: 0 Valid: 0
Page: 11 Frame: 0 Valid: 0
Page: 12 Frame: 0 Valid: 0
Page: 13 Frame: 0 Valid: 0
Page: 14 Frame: 0 Valid: 0
Page: 15 Frame: 0 Valid: 0
Page: 16 Frame: 0 Valid: 0
=========================================
=========================================
Page: 0 Frame: 80 Valid: 1
Page: 1 Frame: 81 Valid: 1
Page: 2 Frame: 82 Valid: 1
Page: 3 Frame: 83 Valid: 1
Page: 4 Frame: 0 Valid: 0
Page: 5 Frame: 0 Valid: 0
Page: 6 Frame: 0 Valid: 0
Page: 7 Frame: 0 Valid: 0
Page: 8 Frame: 0 Valid: 0
Page: 9 Frame: 0 Valid: 0
Page: 10 Frame: 0 Valid: 0
Page: 11 Frame: 0 Valid: 0
Page: 12 Frame: 0 Valid: 0
Page: 13 Frame: 0 Valid: 0
Page: 14 Frame: 0 Valid: 0
Page: 15 Frame: 0 Valid: 0
=========================================
=========================================
Page: 0 Frame: 84 Valid: 1
Page: 1 Frame: 85 Valid: 1
Page: 2 Frame: 86 Valid: 1
Page: 3 Frame: 87 Valid: 1
Page: 4 Frame: 0 Valid: 0
Page: 5 Frame: 0 Valid: 0
Page: 6 Frame: 0 Valid: 0
Page: 7 Frame: 0 Valid: 0
Page: 8 Frame: 0 Valid: 0
Page: 9 Frame: 0 Valid: 0
Page: 10 Frame: 0 Valid: 0
Page: 11 Frame: 0 Valid: 0
Page: 12 Frame: 0 Valid: 0
Page: 13 Frame: 0 Valid: 0
Page: 14 Frame: 0 Valid: 0
Page: 15 Frame: 0 Valid: 0
Page: 16 Frame: 0 Valid: 0
Page: 17 Frame: 0 Valid: 0
=========================================
=========================================
Page: 0 Frame: 88 Valid: 1
Page: 1 Frame: 89 Valid: 1
Page: 2 Frame: 90 Valid: 1
Page: 3 Frame: 91 Valid: 1
Page: 4 Frame: 0 Valid: 0
Page: 5 Frame: 0 Valid: 0
Page: 6 Frame: 0 Valid: 0
Page: 7 Frame: 0 Valid: 0
Page: 8 Frame: 0 Valid: 0
Page: 9 Frame: 0 Valid: 0
Page: 10 Frame: 0 Valid: 0
Page: 11 Frame: 0 Valid: 0
Page: 12 Frame: 0 Valid: 0
Page: 13 Frame: 0 Valid: 0
Page: 14 Frame: 0 Valid: 0
Page: 15 Frame: 0 Valid: 0
Page: 16 Frame: 0 Valid: 0
=========================================
=========================================
Page: 0 Frame: 92 Valid: 1
Page: 1 Frame: 93 Valid: 1
Page: 2 Frame: 94 Valid: 1
Page: 3 Frame: 95 Valid: 1
Page: 4 Frame: 0 Valid: 0
Page: 5 Frame: 0 Valid: 0
Page: 6 Frame: 0 Valid: 0
Page: 7 Frame: 0 Valid: 0
Page: 8 Frame: 0 Valid: 0
Page: 9 Frame: 0 Valid: 0
Page: 10 Frame: 0 Valid: 0
Page: 11 Frame: 0 Valid: 0
Page: 12 Frame: 0 Valid: 0
Page: 13 Frame: 0 Valid: 0
Page: 14 Frame: 0 Valid: 0
Page: 15 Frame: 0 Valid: 0
Page: 16 Frame: 0 Valid: 0
=========================================
=========================================
Page: 0 Frame: 96 Valid: 1
Page: 1 Frame: 97 Valid: 1
Page: 2 Frame: 98 Valid: 1
Page: 3 Frame: 99 Valid: 1
Page: 4 Frame: 0 Valid: 0
Page: 5 Frame: 0 Valid: 0
Page: 6 Frame: 0 Valid: 0
Page: 7 Frame: 0 Valid: 0
Page: 8 Frame: 0 Valid: 0
Page: 9 Frame: 0 Valid: 0
Page: 10 Frame: 0 Valid: 0
Page: 11 Frame: 0 Valid: 0
Page: 12 Frame: 0 Valid: 0
Page: 13 Frame: 0 Valid: 0
Page: 14 Frame: 0 Valid: 0
Page: 15 Frame: 0 Valid: 0
Page: 16 Frame: 0 Valid: 0
=========================================
=========================================
Page: 0 Frame: 100 Valid: 1
Page: 1 Frame: 101 Valid: 1
Page: 2 Frame: 102 Valid: 1
Page: 3 Frame: 103 Valid: 1
Page: 4 Frame: 0 Valid: 0
Page: 5 Frame: 0 Valid: 0
Page: 6 Frame: 0 Valid: 0
Page: 7 Frame: 0 Valid: 0
Page: 8 Frame: 0 Valid: 0
Page: 9 Frame: 0 Valid: 0
Page: 10 Frame: 0 Valid: 0
Page: 11 Frame: 0 Valid: 0
Page: 12 Frame: 0 Valid: 0
Page: 13 Frame: 0 Valid: 0
Page: 14 Frame: 0 Valid: 0
Page: 15 Frame: 0 Valid: 0
=========================================
=========================================
Page: 0 Frame: 104 Valid: 1
Page: 1 Frame: 105 Valid: 1
Page: 2 Frame: 106 Valid: 1
Page: 3 Frame: 107 Valid: 1
Page: 4 Frame: 0 Valid: 0
Page: 5 Frame: 0 Valid: 0
Page: 6 Frame: 0 Valid: 0
Page: 7 Frame: 0 Valid: 0
Page: 8 Frame: 0 Valid: 0
Page: 9 Frame: 0 Valid: 0
Page: 10 Frame: 0 Valid: 0
Page: 11 Frame: 0 Valid: 0
Page: 12 Frame: 0 Valid: 0
Page: 13 Frame: 0 Valid: 0
Page: 14 Frame: 0 Valid: 0
Page: 15 Frame: 0 Valid: 0
Page: 16 Frame: 0 Valid: 0
=========================================
=========================================
Page: 0 Frame: 108 Valid: 1
Page: 1 Frame: 109 Valid: 1
Page: 2 Frame: 110 Valid: 1
Page: 3 Frame: 111 Valid: 1
Page: 4 Frame: 0 Valid: 0
Page: 5 Frame: 0 Valid: 0
Page: 6 Frame: 0 Valid: 0
Page: 7 Frame: 0 Valid: 0
Page: 8 Frame: 0 Valid: 0
Page: 9 Frame: 0 Valid: 0
Page: 10 Frame: 0 Valid: 0
Page: 11 Frame: 0 Valid: 0
Page: 12 Frame: 0 Valid: 0
Page: 13 Frame: 0 Valid: 0
Page: 14 Frame: 0 Valid: 0
Page: 15 Frame: 0 Valid: 0
Page: 16 Frame: 0 Valid: 0
Page: 17 Frame: 0 Valid: 0
=========================================
=========================================
Page: 0 Frame: 112 Valid: 1
Page: 1 Frame: 113 Valid: 1
Page: 2 Frame: 114 Valid: 1
Page: 3 Frame: 115 Valid: 1
Page: 4 Frame: 0 Valid: 0
Page: 5 Frame: 0 Valid: 0
Page: 6 Frame: 0 Valid: 0
Page: 7 Frame: 0 Valid: 0
Page: 8 Frame: 0 Valid: 0
Page: 9 Frame: 0 Valid: 0
Page: 10 Frame: 0 Valid: 0
Page: 11 Frame: 0 Valid: 0
Page: 12 Frame: 0 Valid: 0
Page: 13 Frame: 0 Valid: 0
Page: 14 Frame: 0 Valid: 0
Page: 15 Frame: 0 Valid: 0
Page: 16 Frame: 0 Valid: 0
=========================================
=========================================
Page: 0 Frame: 116 Valid: 1
Page: 1 Frame: 117 Valid: 1
Page: 2 Frame: 118 Valid: 1
Page: 3 Frame: 119 Valid: 1
Page: 4 Frame: 0 Valid: 0
Page: 5 Frame: 0 Valid: 0
Page: 6 Frame: 0 Valid: 0
Page: 7 Frame: 0 Valid: 0
Page: 8 Frame: 0 Valid: 0
Page: 9 Frame: 0 Valid: 0
Page: 10 Frame: 0 Valid: 0
Page: 11 Frame: 0 Valid: 0
Page: 12 Frame: 0 Valid: 0
Page: 13 Frame: 0 Valid: 0
Page: 14 Frame: 0 Valid: 0
Page: 15 Frame: 0 Valid: 0